Match_No  |Length    |Player_1       |Player_2       |P1_Initial_Rating|P2_Initial_Rating|P1_Margin|P2_Margin|P1_k|P2_K|E(1)    |E(2)    |P1_Rating_Change|P2_Rating_Change|P1_New_Rating|P2_New_Rating
=======================================================================================================================================================================================================
1.0       |1000      |Cyrus_1.0      |Random_Play    |Unrated          |100.0            |0.8352   |0.1648   |20  |20  |NULL    |NULL    |381.93          |0               |381.93       |100.0        
-------------------------------------------------------------------------------------------------------------------------------------------------------------------------------------------------------
2.0       |1000      |Cyrus_1.1      |Random_Play    |Unrated          |100.0            |0.9529   |0.0471   |20  |10  |NULL    |NULL    |622.41          |0               |622.41       |100.0        
-------------------------------------------------------------------------------------------------------------------------------------------------------------------------------------------------------
3.0       |1000      |Cyrus_1.2      |Random_Play    |Unrated          |100.0            |0.9737   |0.0263   |20  |10  |NULL    |NULL    |727.39          |0               |727.39       |100.0        
-------------------------------------------------------------------------------------------------------------------------------------------------------------------------------------------------------
4.0       |1000      |Cyrus_1.1      |Cyrus_1.0      |622.41           |381.93           |0.707    |0.293    |10  |10  |0.7997  |0.2003  |-18.54          |18.54           |603.87       |400.47       
-------------------------------------------------------------------------------------------------------------------------------------------------------------------------------------------------------
5.0       |1000      |Random_Play    |Random_Play    |100.0            |100.0            |0.5042   |0.4958   |10  |10  |0.5     |0.5     |0.84            |-0.84           |100.84       |99.16        
-------------------------------------------------------------------------------------------------------------------------------------------------------------------------------------------------------
6.0       |1000      |Cyrus_1.0      |Cyrus_1.0      |400.47           |400.47           |0.5635   |0.4365   |10  |10  |0.5     |0.5     |12.7            |-12.7           |413.17       |387.77000000000004
-------------------------------------------------------------------------------------------------------------------------------------------------------------------------------------------------------
